Assignment3-Sen-WarframeGameReviews
…
This shows that year 2018 was the best performing year.

Tokenization

df <- warframe %>% mutate(Text = str_replace_all(text, "(<br />)+", " "))
tokens <- df %>% unnest_tokens(output = word, input = Text)
tokens %>%  dplyr::count(word, sort = TRUE)

## # A tibble: 35,644 x 2
##    word      n
##    <chr> <int>
##  1 the   73298
##  2 game  61651
##  3 to    59524
##  4 and   56400
##  5 a     48763
##  6 you   39308
##  7 i     38697
##  8 is    37678
##  9 it    35726
## 10 of    35697
## # ... with 35,634 more rows

As most of the words are stopwords, we should remove them.

get_stopwords()

## # A tibble: 175 x 2
##    word      lexicon 
##    <chr>     <chr>   
##  1 i         snowball
##  2 me        snowball
##  3 my        snowball
##  4 myself    snowball
##  5 we        snowball
##  6 our       snowball
##  7 ours      snowball
##  8 ourselves snowball
##  9 you       snowball
## 10 your      snowball
## # ... with 165 more rows
…
Sentiment Analysis

get_sentiments("nrc")

## # A tibble: 13,901 x 2
##    word        sentiment
##    <chr>       <chr>    
##  1 abacus      trust    
##  2 abandon     fear     
##  3 abandon     negative 
##  4 abandon     sadness  
##  5 abandoned   anger    
##  6 abandoned   fear     
##  7 abandoned   negative 
##  8 abandoned   sadness  
##  9 abandonment anger    
## 10 abandonment fear     
## # ... with 13,891 more rows

get_sentiments("afinn")

## # A tibble: 2,477 x 2
##    word       value
##    <chr>      <dbl>
##  1 abandon       -2
##  2 abandoned     -2
##  3 abandons      -2
##  4 abducted      -2
##  5 abduction     -2
##  6 abductions    -2
##  7 abhor         -3
##  8 abhorred      -3
##  9 abhorrent     -3
## 10 abhors        -3
## # ... with 2,467 more rows

get_sentiments("bing")

## # A tibble: 6,786 x 2
##    word        sentiment
##    <chr>       <chr>    
##  1 2-faces     negative 
##  2 abnormal    negative 
##  3 abolish     negative 
##  4 abominable  negative 
##  5 abominably  negative 
##  6 abominate   negative 
##  7 abomination negative 
##  8 abort       negative 
##  9 aborted     negative 
## 10 aborts      negative 
## # ... with 6,776 more rows
…
Above plot shows the positive and negative words and, their contribution to the overall sentiment

Now, tokenizing by n-gram

df$text<-as.character(df$text)
bigrams <- df %>%  unnest_tokens(bigram, Text, token = "ngrams", n = 2)

bigrams %>%  dplyr::count(bigram, sort = TRUE)

## # A tibble: 383,685 x 2
##    bigram        n
##    <chr>     <int>
##  1 this game 19327
##  2 the game  12750
##  3 to play    8782
##  4 game is    7786
##  5 of the     7710
##  6 if you     6724
##  7 you can    5951
##  8 the best   5076
##  9 free to    5009
## 10 is a       4542
## # ... with 383,675 more rows

Most common bigrams

bigrams %>%
count(bigram, sort = TRUE)

## # A tibble: 383,685 x 2
##    bigram        n
##    <chr>     <int>
##  1 this game 19327
##  2 the game  12750
##  3 to play    8782
##  4 game is    7786
##  5 of the     7710
##  6 if you     6724
##  7 you can    5951
##  8 the best   5076
##  9 free to    5009
## 10 is a       4542
## # ... with 383,675 more rows
…
Filtering n-grams

bigrams_separated <- bigrams %>%  
  separate(bigram, c("word1", "word2"), sep = " ")
bigrams_filtered <- bigrams_separated %>%  
  filter(!word1 %in% stop_words$word) %>%  
  filter(!word2 %in% stop_words$word)
bigrams_filtered <- bigrams_filtered %>% drop_na()
bigrams_filtered %>% count(word1, word2, sort = TRUE)

## # A tibble: 111,466 x 3
##    word1   word2        n
##    <chr>   <chr>    <int>
##  1 10      10        2333
##  2 play    game      1968
##  3 free    game      1233
##  4 space   ninja     1200
##  5 fun     game      1147
##  6 f2p     game       991
##  7 space   ninjas     938
##  8 amazing game       872
##  9 gaben   gaben      798
## 10 premium currency   775
## # ... with 111,456 more rows
…
New Bigrams

bigrams_filtered %>%   dplyr::count(word1, word2, sort = TRUE)

## # A tibble: 111,466 x 3
##    word1   word2        n
##    <chr>   <chr>    <int>
##  1 10      10        2333
##  2 play    game      1968
##  3 free    game      1233
##  4 space   ninja     1200
##  5 fun     game      1147
##  6 f2p     game       991
##  7 space   ninjas     938
##  8 amazing game       872
##  9 gaben   gaben      798
## 10 premium currency   775
## # ... with 111,456 more rows
…
Document Term Matrix

tf-idf is Term Frequency and Inverse document frequency. Using this, We can see the repititon of a term in a document and as compared to overall frequency of document.

word_counts_by_SNo <- cleaned_tokens %>%  
  group_by(S.No) %>%  
  dplyr::count(word, sort = TRUE)
word_counts_by_SNo

## # A tibble: 809,481 x 3
## # Groups:   S.No [57,877]
##     S.No word        n
##    <int> <chr>   <int>
##  1 20138 u        1439
##  2 51799 gaben     799
##  3 22504          225
##  4 44952 blood     195
##  5 44952 covered   195
##  6 44952 forget    195
##  7 44952 return    195
##  8 32389          169
##  9 51601 farm      153
## 10  3844 hey       120
## # ... with 809,471 more rows
…
